grade_analysis
…
Question 8

missed_exam_counts <- Grades|>
  group_by(Group) |>
  summarize(Num_Missed_Exam = sum(is.na(Exam)))

missed_exam_counts

# A tibble: 24 × 2
   Group  Num_Missed_Exam
   <chr>            <int>
 1 grp_1                3
 2 grp_10               7
 3 grp_11               6
 4 grp_12               1
 5 grp_13               1
 6 grp_14               1
 7 grp_15               2
 8 grp_16               0
 9 grp_17               5
10 grp_18               3
# ℹ 14 more rows
…
grades_data_long <- Grades |>
  pivot_longer(cols = -c(Id, Group),
               names_to = "variable",  
               values_to = "value") 

Question 11

missing_grades_summary <- grades_data_long |>
  group_by(Id)|>
  summarize(missing_grades = sum(is.na(value)))|>
  ungroup()     
missing_grades_summary

# A tibble: 729 × 2
      Id missing_grades
   <dbl>          <int>
 1     1             10
 2     2             15
 3     3              6
 4     4              0
 5     5             19
 6     6              1
 7     7             11
 8     8              4
 9     9              6
10    10              3
# ℹ 719 more rows
…
Question 14

missing_online_test_grades <- grades_data_long |>
  filter(is.na(value) & grepl("Online_MCQ_", variable))|> 
  group_by(Id) |>                                           
  summarise(missing_count = sum(is.na(value))) |>
  ungroup()
missing_online_test_grades

# A tibble: 683 × 2
      Id missing_count
   <dbl>         <int>
 1     1             9
 2     2            14
 3     3             4
 4     5            19
 5     6             1
 6     7            10
 7     8             3
 8     9             6
 9    10             3
10    11            18
# ℹ 673 more rows
…
Question 16

missed_table <- Grades |>
  group_by(Id)|>
  summarise(Missed = any(is.na(c_across(starts_with("MCQ_")))))
missed_table

# A tibble: 729 × 2
      Id Missed
   <dbl> <lgl> 
 1     1 TRUE  
 2     2 TRUE  
 3     3 TRUE  
 4     4 FALSE 
 5     5 FALSE 
 6     6 FALSE 
 7     7 TRUE  
 8     8 TRUE  
 9     9 FALSE 
10    10 FALSE 
# ℹ 719 more rows

Question 17

group_missed_table <- grades_data|>
  group_by(Group)|>
  summarise(P_missed = pmin((sum(is.na(c_across(starts_with("MCQ_"))) > 0) / n()) * 100, 100))
group_missed_table

# A tibble: 24 × 2
   Group  P_missed
   <chr>     <dbl>
 1 grp_1      86.2
 2 grp_10     69.6
 3 grp_11     32  
 4 grp_12    100  
 5 grp_13     13.8
 6 grp_14     59.4
 7 grp_15     58.8
 8 grp_16     30.3
 9 grp_17     34.3
10 grp_18    100  
# ℹ 14 more rows
…
